…
    library('rgbif')

Parsing output by issue
-----------------------

    (res <- occ_search(geometry='POLYGON((30.1 10.1, 10 20, 20 40, 40 40, 30.1 10.1))', limit = 50))

    #> Records found [1967217] 
    #> Records returned [50] 
    #> No. unique hierarchies [38] 
    #> No. media records [48] 
    #> No. facets [0] 
    #> Args [geometry=POLYGON((30.1 10.1, 10 20, 20 40, 40 40, 30.1 10.1)),
    #>      limit=50, offset=0, fields=all] 
    #> # A tibble: 50 × 79
    #>                     name        key decimalLatitude decimalLongitude
    #>                    <chr>      <int>           <dbl>            <dbl>
    #> 1          Vulpes vulpes 1262387359        33.13012         35.68513
    #> 2             Sus scrofa 1229924242        33.06315         35.83303
    #> 3  Mandragora autumnalis 1233597424        32.82444         35.70061
    #> 4          Vulpes vulpes 1249281130        33.17339         35.79064
    #> 5    Pluchea dioscoridis 1249284896        32.80815         35.67768
    #> 6      Anemone coronaria 1229610123        33.17204         35.69182
    #> 7        Gazella gazella 1249283121        33.17071         35.76562
    #> 8    Echium plantagineum 1249279813        32.83495         35.79767
    #> 9          Prunus dulcis 1249279907        32.81171         35.68569
    #> 10 Passer hispaniolensis 1249278510        33.04824         35.69454
    #> # ... with 40 more rows, and 75 more variables: issues <chr>,
    #> #   datasetKey <chr>, publishingOrgKey <chr>, publishingCountry <chr>,
    #> #   protocol <chr>, lastCrawled <chr>, lastParsed <chr>, crawlId <int>,
    #> #   extensions <chr>, basisOfRecord <chr>, taxonKey <int>,
    #> #   kingdomKey <int>, phylumKey <int>, classKey <int>, orderKey <int>,
    #> #   familyKey <int>, genusKey <int>, speciesKey <int>,
    #> #   scientificName <chr>, kingdom <chr>, phylum <chr>, order <chr>,
    #> #   family <chr>, genus <chr>, species <chr>, genericName <chr>,
    #> #   specificEpithet <chr>, taxonRank <chr>, dateIdentified <chr>,
…
split issues into separate columns

    res %>% occ_issues(mutate = "split")

    #> Records found [1967217] 
    #> Records returned [50] 
    #> No. unique hierarchies [38] 
    #> No. media records [48] 
    #> No. facets [0] 
    #> Args [geometry=POLYGON((30.1 10.1, 10 20, 20 40, 40 40, 30.1 10.1)),
    #>      limit=50, offset=0, fields=all] 
    #> # A tibble: 50 × 82
    #>                     name        key decimalLatitude decimalLongitude
    #>                    <chr>      <int>           <dbl>            <dbl>
    #> 1          Vulpes vulpes 1262387359        33.13012         35.68513
    #> 2             Sus scrofa 1229924242        33.06315         35.83303
    #> 3  Mandragora autumnalis 1233597424        32.82444         35.70061
    #> 4          Vulpes vulpes 1249281130        33.17339         35.79064
    #> 5    Pluchea dioscoridis 1249284896        32.80815         35.67768
    #> 6      Anemone coronaria 1229610123        33.17204         35.69182
    #> 7        Gazella gazella 1249283121        33.17071         35.76562
    #> 8    Echium plantagineum 1249279813        32.83495         35.79767
    #> 9          Prunus dulcis 1249279907        32.81171         35.68569
    #> 10 Passer hispaniolensis 1249278510        33.04824         35.69454
    #> # ... with 40 more rows, and 78 more variables: cdround <chr>,
    #> #   gass84 <chr>, cdreps <chr>, txmathi <chr>, datasetKey <chr>,
    #> #   publishingOrgKey <chr>, publishingCountry <chr>, protocol <chr>,
    #> #   lastCrawled <chr>, lastParsed <chr>, crawlId <int>, extensions <chr>,
    #> #   basisOfRecord <chr>, taxonKey <int>, kingdomKey <int>,
    #> #   phylumKey <int>, classKey <int>, orderKey <int>, familyKey <int>,
    #> #   genusKey <int>, speciesKey <int>, scientificName <chr>, kingdom <chr>,
    #> #   phylum <chr>, order <chr>, family <chr>, genus <chr>, species <chr>,
    #> #   genericName <chr>, specificEpithet <chr>, taxonRank <chr>,
…
expand issues to more descriptive names

    res %>% occ_issues(mutate = "expand")

    #> Records found [1967217] 
    #> Records returned [50] 
    #> No. unique hierarchies [38] 
    #> No. media records [48] 
    #> No. facets [0] 
    #> Args [geometry=POLYGON((30.1 10.1, 10 20, 20 40, 40 40, 30.1 10.1)),
    #>      limit=50, offset=0, fields=all] 
    #> # A tibble: 50 × 79
    #>                     name        key decimalLatitude decimalLongitude
    #>                    <chr>      <int>           <dbl>            <dbl>
    #> 1          Vulpes vulpes 1262387359        33.13012         35.68513
    #> 2             Sus scrofa 1229924242        33.06315         35.83303
    #> 3  Mandragora autumnalis 1233597424        32.82444         35.70061
    #> 4          Vulpes vulpes 1249281130        33.17339         35.79064
    #> 5    Pluchea dioscoridis 1249284896        32.80815         35.67768
    #> 6      Anemone coronaria 1229610123        33.17204         35.69182
    #> 7        Gazella gazella 1249283121        33.17071         35.76562
    #> 8    Echium plantagineum 1249279813        32.83495         35.79767
    #> 9          Prunus dulcis 1249279907        32.81171         35.68569
    #> 10 Passer hispaniolensis 1249278510        33.04824         35.69454
    #> # ... with 40 more rows, and 75 more variables: issues <chr>,
    #> #   datasetKey <chr>, publishingOrgKey <chr>, publishingCountry <chr>,
    #> #   protocol <chr>, lastCrawled <chr>, lastParsed <chr>, crawlId <int>,
    #> #   extensions <chr>, basisOfRecord <chr>, taxonKey <int>,
    #> #   kingdomKey <int>, phylumKey <int>, classKey <int>, orderKey <int>,
    #> #   familyKey <int>, genusKey <int>, speciesKey <int>,
    #> #   scientificName <chr>, kingdom <chr>, phylum <chr>, order <chr>,
    #> #   family <chr>, genus <chr>, species <chr>, genericName <chr>,
    #> #   specificEpithet <chr>, taxonRank <chr>, dateIdentified <chr>,
…
split and expand

    res %>% occ_issues(mutate = "split_expand")

    #> Records found [1967217] 
    #> Records returned [50] 
    #> No. unique hierarchies [38] 
    #> No. media records [48] 
    #> No. facets [0] 
    #> Args [geometry=POLYGON((30.1 10.1, 10 20, 20 40, 40 40, 30.1 10.1)),
    #>      limit=50, offset=0, fields=all] 
    #> # A tibble: 50 × 82
    #>                     name        key decimalLatitude decimalLongitude
    #>                    <chr>      <int>           <dbl>            <dbl>
    #> 1          Vulpes vulpes 1262387359        33.13012         35.68513
    #> 2             Sus scrofa 1229924242        33.06315         35.83303
    #> 3  Mandragora autumnalis 1233597424        32.82444         35.70061
    #> 4          Vulpes vulpes 1249281130        33.17339         35.79064
    #> 5    Pluchea dioscoridis 1249284896        32.80815         35.67768
    #> 6      Anemone coronaria 1229610123        33.17204         35.69182
    #> 7        Gazella gazella 1249283121        33.17071         35.76562
    #> 8    Echium plantagineum 1249279813        32.83495         35.79767
    #> 9          Prunus dulcis 1249279907        32.81171         35.68569
    #> 10 Passer hispaniolensis 1249278510        33.04824         35.69454
    #> # ... with 40 more rows, and 78 more variables: COORDINATE_ROUNDED <chr>,
    #> #   GEODETIC_DATUM_ASSUMED_WGS84 <chr>,
    #> #   COORDINATE_REPROJECTION_SUSPICIOUS <chr>,
    #> #   TAXON_MATCH_HIGHERRANK <chr>, datasetKey <chr>,
    #> #   publishingOrgKey <chr>, publishingCountry <chr>, protocol <chr>,
    #> #   lastCrawled <chr>, lastParsed <chr>, crawlId <int>, extensions <chr>,
    #> #   basisOfRecord <chr>, taxonKey <int>, kingdomKey <int>,
    #> #   phylumKey <int>, classKey <int>, orderKey <int>, familyKey <int>,
    #> #   genusKey <int>, speciesKey <int>, scientificName <chr>, kingdom <chr>,
…
