…
Get children

    children("Salmo", db = 'worms')

    #> $Salmo
    #> # A tibble: 187 × 3
    #>    childtaxa_id        childtaxa_name childtaxa_rank
    #>           <int>                 <chr>          <chr>
    #> 1        154470       Salmo (Osmerus)       Subgenus
    #> 2        712455       Salmo abanticus        Species
    #> 3        305943          Salmo albula        Species
    #> 4        305944           Salmo albus        Species
    #> 5        305945           Salmo albus        Species
    #> 6        305946 Salmo alpinostagnalis        Species
    #> 7        154821         Salmo alpinus        Species
    #> 8        305947       Salmo altivelis        Species
    #> 9        305948      Salmo argentinus        Species
    #> 10       400236          Salmo artedi        Species
    #> # ... with 177 more rows
…
